%YAML 1.1
%TAG !u! tag:unity3d.com,2011:
--- !u!95 &6596980351184709602
Animator:
  serializedVersion: 3
  m_ObjectHideFlags: 0
  m_CorrespondingSourceObject: {fileID: 0}
  m_PrefabInstance: {fileID: 0}
  m_PrefabAsset: {fileID: 0}
  m_GameObject: {fileID: 1331270523475679866}
  m_Enabled: 1
  m_Avatar: {fileID: 0}
  m_Controller: {fileID: 0}
  m_CullingMode: 0
  m_UpdateMode: 0
  m_ApplyRootMotion: 0
  m_LinearVelocityBlending: 0
  m_WarningMessage: 
  m_HasTransformHierarchy: 1
  m_AllowConstantClipSamplingOptimization: 1
  m_KeepAnimatorControllerStateOnDisable: 0
--- !u!1 &5508379762432565416
GameObject:
  m_ObjectHideFlags: 0
  m_CorrespondingSourceObject: {fileID: 0}
  m_PrefabInstance: {fileID: 0}
  m_PrefabAsset: {fileID: 0}
  serializedVersion: 6
  m_Component:
  - component: {fileID: 5508379762432565419}
  m_Layer: 0
  m_Name: Character
  m_TagString: Untagged
  m_Icon: {fileID: 0}
  m_NavMeshLayer: 0
  m_StaticEditorFlags: 0
  m_IsActive: 1
--- !u!4 &5508379762432565419
Transform:
  m_ObjectHideFlags: 0
  m_CorrespondingSourceObject: {fileID: 0}
  m_PrefabInstance: {fileID: 0}
  m_PrefabAsset: {fileID: 0}
  m_GameObject: {fileID: 5508379762432565416}
  m_LocalRotation: {x: 0, y: 0, z: 0, w: 1}
  m_LocalPosition: {x: 0, y: 0, z: 0}
  m_LocalScale: {x: 1, y: 1, z: 1}
  m_Children:
  - {fileID: 1815601355646501056}
  m_Father: {fileID: 0}
  m_RootOrder: 0
  m_LocalEulerAnglesHint: {x: 0, y: 0, z: 0}
--- !u!1001 &5380809592253111501
PrefabInstance:
  m_ObjectHideFlags: 0
  serializedVersion: 2
  m_Modification:
    m_TransformParent: {fileID: 5508379762432565419}
    m_Modifications:
    - target: {fileID: 6025312729378970637, guid: eac9f4ff8403cd84bac714e332303b98, type: 3}
      propertyPath: m_LocalPosition.x
      value: 0.000000038146972
      objectReference: {fileID: 0}
    - target: {fileID: 6025312729378970637, guid: eac9f4ff8403cd84bac714e332303b98, type: 3}
      propertyPath: m_LocalPosition.y
      value: 0.0030372646
      objectReference: {fileID: 0}
    - target: {fileID: 6025312729378970637, guid: eac9f4ff8403cd84bac714e332303b98, type: 3}
      propertyPath: m_LocalPosition.z
      value: -0.035708282
      objectReference: {fileID: 0}
    - target: {fileID: 6025312729378970637, guid: eac9f4ff8403cd84bac714e332303b98, type: 3}
      propertyPath: m_LocalRotation.x
      value: 0
      objectReference: {fileID: 0}
    - target: {fileID: 6025312729378970637, guid: eac9f4ff8403cd84bac714e332303b98, type: 3}
      propertyPath: m_LocalRotation.y
      value: -0
      objectReference: {fileID: 0}
    - target: {fileID: 6025312729378970637, guid: eac9f4ff8403cd84bac714e332303b98, type: 3}
      propertyPath: m_LocalRotation.z
      value: -0
      objectReference: {fileID: 0}
    - target: {fileID: 6025312729378970637, guid: eac9f4ff8403cd84bac714e332303b98, type: 3}
      propertyPath: m_LocalRotation.w
      value: 1
      objectReference: {fileID: 0}
    - target: {fileID: 6025312729378970637, guid: eac9f4ff8403cd84bac714e332303b98, type: 3}
      propertyPath: m_RootOrder
      value: 0
      objectReference: {fileID: 0}
    - target: {fileID: 6025312729378970637, guid: eac9f4ff8403cd84bac714e332303b98, type: 3}
      propertyPath: m_LocalEulerAnglesHint.x
      value: 0
      objectReference: {fileID: 0}
    - target: {fileID: 6025312729378970637, guid: eac9f4ff8403cd84bac714e332303b98, type: 3}
      propertyPath: m_LocalEulerAnglesHint.y
      value: 0
      objectReference: {fileID: 0}
    - target: {fileID: 6025312729378970637, guid: eac9f4ff8403cd84bac714e332303b98, type: 3}
      propertyPath: m_LocalEulerAnglesHint.z
      value: 0
      objectReference: {fileID: 0}
    - target: {fileID: 6401276073496381111, guid: eac9f4ff8403cd84bac714e332303b98, type: 3}
      propertyPath: m_Name
      value: C_01_Prefab
      objectReference: {fileID: 0}
    m_RemovedComponents: []
  m_SourcePrefab: {fileID: 100100000, guid: eac9f4ff8403cd84bac714e332303b98, type: 3}
--- !u!1 &1331270523475679866 stripped
GameObject:
  m_CorrespondingSourceObject: {fileID: 6401276073496381111, guid: eac9f4ff8403cd84bac714e332303b98, type: 3}
  m_PrefabInstance: {fileID: 5380809592253111501}
  m_PrefabAsset: {fileID: 0}
--- !u!4 &1815601355646501056 stripped
Transform:
  m_CorrespondingSourceObject: {fileID: 6025312729378970637, guid: eac9f4ff8403cd84bac714e332303b98, type: 3}
  m_PrefabInstance: {fileID: 5380809592253111501}
  m_PrefabAsset: {fileID: 0}
