{
    "m_SelectedDeviceId": "67a0ac1c0305",
    "m_SelectedPackage": {
        "deviceId": "67a0ac1c0305",
        "name": "com.alphapotato.upworker",
        "processId": 17190,
        "exited": false
    },
    "m_SelectedPriority": 0,
    "m_KnownPackagesForSerialization": [
        {
            "deviceId": "67a0ac1c0305",
            "name": "com.android.launcher3",
            "processId": 3765,
            "exited": false
        },
        {
            "deviceId": "67a0ac1c0305",
            "name": "com.alphapotato.upworker",
            "processId": 17190,
            "exited": false
        }
    ],
    "m_Tags": {
        "m_Entries": [
            {
                "m_Name": "Filter by all listed tags",
                "m_Selected": false
            },
            {
                "m_Name": "No Filter",
                "m_Selected": false
            },
            {
                "m_Name": "",
                "m_Selected": false
            },
            {
                "m_Name": "Tag Control...",
                "m_Selected": false
            },
            {
                "m_Name": "",
                "m_Selected": false
            },
            {
                "m_Name": "Unity",
                "m_Selected": true
            },
            {
                "m_Name": "CRASH",
                "m_Selected": true
            },
            {
                "m_Name": "potato.upworke",
                "m_Selected": true
            }
        ]
    },
    "m_MemoryViewerState": {
        "MemoryWindowHeight": 300.0,
        "MemoryWindowWidth": 170.0,
        "MemoryTypeEnabled": [
            true,
            true,
            true,
            true,
            true,
            true,
            true,
            true,
            true,
            true
        ],
        "MemoryGroup": 1,
        "Behavior": 1
    },
    "m_Filter": "",
    "m_FilterIsRegularExpression": false,
    "m_SymbolPaths": []
}