%YAML 1.1
%TAG !u! tag:unity3d.com,2011:
--- !u!114 &11400000
MonoBehaviour:
  m_ObjectHideFlags: 0
  m_CorrespondingSourceObject: {fileID: 0}
  m_PrefabInstance: {fileID: 0}
  m_PrefabAsset: {fileID: 0}
  m_GameObject: {fileID: 0}
  m_Enabled: 1
  m_EditorHideFlags: 0
  m_Script: {fileID: 11500000, guid: 2424a9a671d829f4ba925d200cde0250, type: 3}
  m_Name: CSVBox_PlayerProgData
  m_EditorClassIdentifier: 
  baseDirectory: Resources/CSV
  dataList:
  - title: PlayerProg
    googleID: 14xyQlvvTDLLEbciuuoYZ8_2IUOgQQPxKa06g1jNIAbQ
    sheetID: 0
